BOJ
…
The function returns a tibble data frame listing the available data sets. The column url can be used as input for the function get_boj() which downloads, parses and imports the corresponding data.

To import monthly-frequency data on Japan’s Services Producer Price Index, run:

sppi <- get_boj(datasets$url[(datasets$name == "sppi_m_en")])
sppi
## # A tibble: 41,738 × 5
##    code              desc                  struc                 date  obs_value
##    <chr>             <chr>                 <chr>                 <chr>     <dbl>
##  1 PRCS15_5200000000 Services Producer Pr… [Services Producer P… 2015…      99.6
##  2 PRCS15_5200000000 Services Producer Pr… [Services Producer P… 2015…      99.7
##  3 PRCS15_5200000000 Services Producer Pr… [Services Producer P… 2015…     100. 
##  4 PRCS15_5200000000 Services Producer Pr… [Services Producer P… 2015…     100  
##  5 PRCS15_5200000000 Services Producer Pr… [Services Producer P… 2015…     100. 
##  6 PRCS15_5200000000 Services Producer Pr… [Services Producer P… 2015…     100  
##  7 PRCS15_5200000000 Services Producer Pr… [Services Producer P… 2015…     100. 
##  8 PRCS15_5200000000 Services Producer Pr… [Services Producer P… 2015…     100. 
##  9 PRCS15_5200000000 Services Producer Pr… [Services Producer P… 2015…      99.9
## 10 PRCS15_5200000000 Services Producer Pr… [Services Producer P… 2015…      99.9
## # … with 41,728 more rows
…
